{"_id":{"$oid":"5cb8eed5feccb9ebc54f72d1"},"usersShared":[],"name":"prueba2","content":"","folder":{"_id":{"$oid":"5cb8d1c5b2a8327edd2751b0"},"name":"main"},"typeFile":[{"_id":{"$oid":"5cb8d7dbde7451a8d42e4345"},"name":"Python","extension":"py","icon":"\u003ci class='fab fa-python fa-5x'\u003e\u003c/i\u003e"}],"privacy":"public","__v":0}
{"_id":{"$oid":"5cb8efc0feccb9ebc54f72d2"},"usersShared":[{"_id":{"$oid":"5cba5a1704d71f365c2bfeef"},"name":"FranGomez13"},{"_id":{"$oid":"5cba5a1704d71f365c2bfeef"},"name":"FranGomez13"}],"name":"sdf","content":"","folder":{"_id":{"$oid":"5cb8d1c5b2a8327edd2751b0"},"name":"main"},"typeFile":[{"_id":{"$oid":"5cb8d7e7de7451a8d42e4346"},"name":"C++","extension":"cpp","icon":"\u003ci class='fab fa-cuttlefish fa-5x'\u003e\u003c/i\u003e"}],"privacy":"public","__v":0}
{"_id":{"$oid":"5cb8efcffeccb9ebc54f72d4"},"usersShared":[{"_id":{"$oid":"5cba5a1704d71f365c2bfeef"},"name":"FranGomez13"}],"name":"asd","content":"","folder":{"_id":{"$oid":"5cb8d1c5b2a8327edd2751b0"},"name":"main"},"typeFile":[{"_id":{"$oid":"5cb8d7f1de7451a8d42e4347"},"name":"Java","extension":"java","icon":"\u003ci class='fab fa-java fa-5x'\u003e\u003c/i\u003e"}],"privacy":"public","__v":0}
{"_id":{"$oid":"5cb8efd9feccb9ebc54f72d5"},"usersShared":[],"name":"sd","content":"","folder":{"_id":{"$oid":"5cb8d1c5b2a8327edd2751b0"},"name":"main"},"typeFile":[{"_id":{"$oid":"5cb8d80bde7451a8d42e4349"},"name":"Javascript","extension":"js","icon":"\u003ci class='fab fa-js fa-5x'\u003e\u003c/i\u003e"}],"privacy":"public","__v":0}
{"_id":{"$oid":"5cb8efe8feccb9ebc54f72d6"},"usersShared":[],"name":"asdasda","content":"body{\n  background: black;\n}","folder":{"_id":{"$oid":"5cb8d1d3b2a8327edd2751b1"},"name":":v"},"typeFile":[{"_id":{"$oid":"5cb8d828de7451a8d42e434a"},"name":"CSS","extension":"css","icon":"\u003ci class='fab fa-css3 fa-5x'\u003e\u003c/i\u003e"}],"privacy":"public","__v":0}
{"_id":{"$oid":"5cb8f050feccb9ebc54f72d7"},"usersShared":[],"name":"html","content":"\u003ch1\u003eHola Mundo :3\u003c/h1\u003e","folder":{"_id":{"$oid":"5cb8d1c5b2a8327edd2751b0"},"name":"main"},"typeFile":[{"_id":{"$oid":"5cb8d7fade7451a8d42e4348"},"name":"HTML","extension":"html","icon":"\u003ci class='fab fa-html5 fa-5x'\u003e\u003c/i\u003e"}],"privacy":"public","__v":0}
{"_id":{"$oid":"5cba5a3d04d71f365c2bfef1"},"usersShared":[{"_id":{"$oid":"5cb8d1c4b2a8327edd2751af"},"name":"frangomez13"}],"name":"pruebasd","content":"","folder":{"_id":{"$oid":"5cba5a1704d71f365c2bfef0"},"name":"main"},"typeFile":[{"_id":{"$oid":"5cb8d7f1de7451a8d42e4347"},"name":"Java","extension":"java","icon":"\u003ci class='fab fa-java fa-5x'\u003e\u003c/i\u003e"}],"privacy":"public","favorite":false,"__v":0}
{"_id":{"$oid":"5cbbc1144213159109e539b8"},"usersShared":[],"name":"eq","content":"","folder":{"_id":{"$oid":"5cb8d1d3b2a8327edd2751b1"},"name":":v"},"typeFile":[{"_id":{"$oid":"5cb8d7e7de7451a8d42e4346"},"name":"C++","extension":"cpp","icon":"\u003ci class='fab fa-cuttlefish fa-5x'\u003e\u003c/i\u003e"}],"privacy":"public","favorite":false,"__v":0}
{"_id":{"$oid":"5cbbc2444213159109e539bb"},"usersShared":[],"name":"ddd","content":"","folder":{"_id":{"$oid":"5cb8d1d3b2a8327edd2751b1"},"name":":v"},"typeFile":[{"_id":{"$oid":"5cb8d7dbde7451a8d42e4345"},"name":"Python","extension":"py","icon":"\u003ci class='fab fa-python fa-5x'\u003e\u003c/i\u003e"}],"privacy":"public","favorite":false,"__v":0}
{"_id":{"$oid":"5cbbca1977b904a2b5946c7f"},"usersShared":[],"name":"fff","content":"","folder":{"_id":{"$oid":"5cb8d1c5b2a8327edd2751b0"},"name":"main"},"typeFile":[{"_id":{"$oid":"5cb8d7e7de7451a8d42e4346"},"name":"C++","extension":"cpp","icon":"\u003ci class='fab fa-cuttlefish fa-5x'\u003e\u003c/i\u003e"}],"privacy":"public","favorite":false,"__v":0}
